// Jest Snapshot v1, https://goo.gl/fbAQLP

exports[`CompleteProfile #render should render component CompleteProfile correctly when invoked 1`] = `
<div
  className="complete-profile"
>
  <Container
    fluid={true}
  >
    <Row
      noGutters={false}
    >
      <Col
        xs={6}
      >
        <div
          className="complete-profile-left-section"
        >
          <div
            className="complete-profile-round"
          >
            <div
              className="complete-profile-greetings"
            >
              <h1>
                Hore! 
                <br />
                Terima kasih 
                <br />
                sudah bergabung!
              </h1>
            </div>
          </div>
          <div
            className="complete-profile-illustration"
          >
            <Image
              fluid={false}
              rounded={false}
              roundedCircle={false}
              src="signup-illustration.png"
              thumbnail={false}
              width="475"
            />
          </div>
        </div>
      </Col>
      <Col
        xs={6}
      >
        <div
          className="complete-profile-right-section"
        >
          <div
            className="complete-profile-form"
          >
            <Row
              noGutters={false}
            >
              <Col
                xs={12}
              >
                <h1
                  className="complete-profile-form-title"
                >
                  Aku adalah...
                </h1>
              </Col>
            </Row>
            <Row
              noGutters={false}
            >
              <Col
                xs={12}
              >
                <div
                  className="complete-profile-form-input"
                >
                  <div
                    className="error-complete-profile "
                  >
                    Error occurs when trying to complete profile
                  </div>
                  <Form
                    inline={false}
                  >
                    <div
                      className="complete-profile-form-picker"
                    >
                      <div
                        className="
                complete-profile-form-picker-teacher 
                false
              "
                        onClick={[Function]}
                      >
                        <Image
                          alt=""
                          fluid={false}
                          rounded={false}
                          roundedCircle={false}
                          src="teacher-picker-illustration.png"
                          thumbnail={false}
                          width="110"
                        />
                        <p
                          className="complete-profile-form-picker-text"
                        >
                          Seorang Guru
                        </p>
                      </div>
                      <div>
                        OR
                      </div>
                      <div
                        className="
                complete-profile-form-picker-designer 
                false
              "
                        onClick={[Function]}
                      >
                        <Image
                          alt=""
                          fluid={false}
                          rounded={false}
                          roundedCircle={false}
                          src="designer-picker-illustration.png"
                          thumbnail={false}
                          width="120"
                        />
                        <p
                          className="complete-profile-form-picker-text"
                        >
                          Seorang Desainer
                        </p>
                      </div>
                    </div>
                    <FormGroup>
                      <FormLabel
                        className="complete-profile-form-input-label"
                        column={false}
                        srOnly={false}
                      >
                        Bidang
                      </FormLabel>
                      <StateManager
                        className="complete-profile-form-select"
                        classNamePrefix="complete-profile-form-select"
                        components={
                          Object {
                            "ClearIndicator": [Function],
                            "Control": [Function],
                            "CrossIcon": [Function],
                            "DownChevron": [Function],
                            "DropdownIndicator": [Function],
                            "Group": [Function],
                            "GroupHeading": [Function],
                            "IndicatorSeparator": [Function],
                            "IndicatorsContainer": [Function],
                            "Input": [Function],
                            "LoadingIndicator": [Function],
                            "LoadingMessage": [Function],
                            "Menu": [Function],
                            "MenuList": [Function],
                            "MenuPortal": [Function],
                            "MultiValue": [Function],
                            "MultiValueContainer": [Function],
                            "MultiValueLabel": [Function],
                            "MultiValueRemove": [Function],
                            "NoOptionsMessage": [Function],
                            "Option": [Function],
                            "Placeholder": [Function],
                            "SelectContainer": [Function],
                            "SingleValue": [Function],
                            "ValueContainer": [Function],
                          }
                        }
                        defaultInputValue=""
                        defaultMenuIsOpen={false}
                        defaultValue={null}
                        isDisabled={true}
                        isMulti={true}
                        onChange={[Function]}
                        placeholder="Pilih bidang anda"
                        styles={
                          Object {
                            "control": [Function],
                          }
                        }
                      />
                      <Feedback
                        type="invalid"
                      />
                    </FormGroup>
                    <FormGroup>
                      <FormLabel
                        className="complete-profile-form-input-label"
                        column={false}
                        srOnly={false}
                      >
                        Tempat Kerja
                      </FormLabel>
                      <FormControl
                        className="complete-profile-form-input-control"
                        isInvalid={false}
                        name="worksFor"
                        onBlur={[Function]}
                        onChange={[Function]}
                        placeholder="Masukkan nama lembaga tempat anda bekerja"
                        required={true}
                        type="text"
                        value=""
                      />
                    </FormGroup>
                  </Form>
                  <Row
                    noGutters={false}
                  >
                    <Col
                      xs={12}
                    >
                      <Button
                        active={false}
                        className="complete-profile-form-input-button"
                        disabled={false}
                        onClick={[Function]}
                        type="submit"
                        variant="primary"
                      >
                        Submit
                      </Button>
                    </Col>
                    <Col
                      xs={12}
                    >
                      <div
                        className="complete-profile-form-input-skip"
                      >
                        <Link
                          to="/papan-pintar"
                        >
                          Skip for now
                        </Link>
                      </div>
                    </Col>
                  </Row>
                </div>
              </Col>
            </Row>
          </div>
        </div>
      </Col>
    </Row>
  </Container>
</div>
`;
