// Jest Snapshot v1, https://goo.gl/fbAQLP

exports[`InvitationCard #render should render component InvitationCard correctly when invoked 1`] = `
<Fragment>
  <div
    className="invitation-card"
  >
    <div
      className="invitation-card__wrapper"
    >
      <img
        alt=""
        className="invitation-card-math-bg"
        src="math-card-bg.png"
      />
      <div
        className="invitation-card__member"
      />
      <div
        className="invitation-card__label"
      >
        <Label
          onClick={[Function]}
          type="STATUS_OVERDUE"
        >
          Rejected
        </Label>
      </div>
      <div
        className="invitation-card__title"
      >
        <h1 />
        <h1>
           Lesson - 
        </h1>
      </div>
      <div
        className="invitation-card__view"
      >
        <ForwardRef
          color="currentColor"
          size="1em"
        />
         
        <Link
          to="/"
        >
          View Brief
        </Link>
      </div>
      <div
        className="invitation-card__deadline"
      >
        <ForwardRef
          color="currentColor"
          size="1em"
        />
         
        NaN
         days left
      </div>
      <div
        className="invitation-card__button"
      >
        <Button
          block={true}
          dropdownItem={
            Array [
              Object {},
            ]
          }
          halfWidth={false}
          icon={null}
          onClick={[Function]}
          type="danger"
        >
          Delete
        </Button>
      </div>
      <StartProposalConfirmModal
        details={Object {}}
      />
      <JoinProjectModal
        isShowModal={false}
        joinProject={[Function]}
        key="1be6ad93-e96f-3e5f-a542-f865c2dd4fd2renderJoinProjectModal"
        organization={null}
        project={null}
        rejectInvitation={[Function]}
        renderTitle={[Function]}
        renderViewAndDeadline={[Function]}
        setIsShowModal={[Function]}
      />
      <ConfirmationModal
        doneMsg="Team successfully rejected!"
        handleSubmit={[Function]}
        headerMsg="Reject"
        isShowModal={false}
        setIsShowModal={[Function]}
      />
      <ConfirmationModal
        doneMsg="Successfully deleted!"
        handleSubmit={[Function]}
        headerMsg="Delete this rejected invitation"
        isShowModal={false}
        setIsShowModal={[Function]}
      />
    </div>
  </div>
</Fragment>
`;
