// Jest Snapshot v1, https://goo.gl/fbAQLP

exports[`OrganizationCard #render should render component OrganizationCard correctly when invoked 1`] = `
<div
  className="creative-work"
>
  <img
    alt=""
    className="creative-work-img-bg"
    src="math-card-bg.png"
  />
  <div
    className="creative-work__wrapper"
  >
    <div
      className="creative-work__label"
    >
      <Label
        onClick={[Function]}
        type="STATUS_NEED_PARTNER"
      >
        Need Partner
      </Label>
    </div>
    <div
      className="creative-work__title creative-work__title--margin-50"
    >
      <h1>
        fugiat
      </h1>
      <h1>
         Lesson - 
      </h1>
    </div>
    <Row
      className="creative-work-bottom-row"
      noGutters={false}
    >
      <Col
        xs={6}
      >
        <div
          className="creative-work__deadline"
        >
          <ForwardRef
            color="currentColor"
            size="1em"
          />
           
          NaN
           days left
        </div>
      </Col>
      <Col
        xs={6}
      >
        <div
          className="creative-work__member creative-work__member--flex-end up"
        />
      </Col>
      <Col
        xs={6}
      >
        <div
          className="creative-work__button creative-work__button--flex-end"
        />
      </Col>
      <div
        className="organization-card-before-lock-team-btn"
      >
        <Button
          block={true}
          dropdownItem={
            Array [
              Object {},
            ]
          }
          halfWidth={false}
          icon={null}
          onClick={[Function]}
          type="secondary"
        >
          Exit Project
        </Button>
        <StartProposalModal
          isOwner={false}
          isShowModal={false}
          organization={
            Object {
              "@id": "/organizations/08c2ccfc-be45-3d11-a778-dbaf32fda5ee",
              "@type": "http://schema.org/Organization",
              "creativeWork": "/creative_works/1e1a9535-d426-3eb8-9edd-dd88c3ef954f",
              "founder": "/users/8190442f-fcad-3d5e-b2b3-364ea0ca54b4",
              "id": "08c2ccfc-be45-3d11-a778-dbaf32fda5ee",
              "locked": false,
              "members": Array [
                "/users/8190442f-fcad-3d5e-b2b3-364ea0ca54b4",
                "/users/9b71a45e-5a63-3cdc-ab51-139de3725046",
                "/users/fca181ad-4ad0-3af2-9cbf-322dfa85793a",
              ],
              "name": "fugiat",
              "openForJoin": true,
              "organizationUnconfirmedMembers": Array [
                "/organization_unconfirmed_members/8cdfc88f-19f8-3706-8416-ce03ccc4c8a3",
                "/organization_unconfirmed_members/d15389f3-fed4-3dca-8a5d-3904e16546fa",
              ],
              "project": "/projects/7f119b1b-0954-32b7-925b-c9bb8c47468e",
              "status": "STATUS_NEED_PARTNER",
            }
          }
          renderDeadlineClock={[Function]}
          renderLabel={[Function]}
          renderTitle={[Function]}
          setIsShowModal={[Function]}
          startProposal={[Function]}
        />
      </div>
    </Row>
  </div>
</div>
`;
