// Jest Snapshot v1, https://goo.gl/fbAQLP

exports[`AdminLessonRequests should render component AdminLessonRequests correctly when invoked 1`] = `
<div>
  <PublishModal
    onPublishClick={[Function]}
    publishModalData={Object {}}
    setShowModal={[Function]}
    showModal={false}
  />
  <AdminSidebar
    active="lessonRequests"
  />
  <div
    className="admin-lesson-requests-content"
  >
    <div
      className="admin-lesson-requests-heading"
    >
      <h1
        className="admin-lesson-requests-heading-text"
      >
        <img
          alt=""
          className="admin-lesson-requests-heading-img"
          src="Notepad.png"
        />
        Lesson Requests
      </h1>
      <div
        className="admin-lesson-requests-heading-btn"
      >
        <Button
          block={true}
          dropdownItem={
            Array [
              Object {},
            ]
          }
          halfWidth={false}
          icon={null}
          onClick={[Function]}
        >
          Create Lesson
        </Button>
      </div>
    </div>
    <div
      className="admin-lesson-requests-tabs"
    >
      <div
        className="admin-lesson-requests-tabs-tab active"
        onClick={[Function]}
      >
        Requested(
        0
        )
      </div>
      <div
        className="admin-lesson-requests-tabs-tab "
        onClick={[Function]}
      >
        Draft(
        0
        )
      </div>
    </div>
    <div
      className="admin-lesson-requests-filters"
    >
      <ClassesFilter />
      <SubjectsFilter />
      <StatusFilter />
      <PeriodFilter />
    </div>
    <RequestedTable />
    <div
      className="admin-lesson-requests-pagination"
    >
      <i
        className="fa fa-chevron-left admin-lesson-requests-pagination-arrow"
      />
      <span
        className="admin-lesson-requests-pagination-num active"
        onClick={[Function]}
      >
        1
      </span>
      <span
        className="admin-lesson-requests-pagination-num "
        onClick={[Function]}
      >
        2
      </span>
      <i
        className="fa fa-chevron-right admin-lesson-requests-pagination-arrow"
      />
      <span>
        1 - 20 of 40
      </span>
    </div>
    <StartProposalConfirmModal
      details={
        Object {
          "heading": "Yay! your request has been made. Hope it’s going well!",
          "isSingleButton": false,
          "noText": "Check Request",
          "setShow": [Function],
          "show": false,
          "sub": "You can check the progress on Ongoing Lesson Request or create another request!",
          "yesClick": [Function],
          "yesText": "Create Another",
        }
      }
      isShowModal={false}
      setIsShowModal={[Function]}
    />
  </div>
</div>
`;
